{
  "version": "1.0.0",
  "tasks": {
    "start": "deno run -A --unstable --watch=static/,routes/ dev.ts"
  },
  "importMap": "./import_map.json",
  "compilerOptions": {
    "jsx": "react-jsx",
    "jsxImportSource": "preact"
  }
}
